CalculationMode = gs
fromScratch = yes

%Systems
 "Carbon"   | electronic
 "Hydrogen" | electronic
%

%Carbon.Coordinates
"C" | 0 | 0 | 0
%

%Hydrogen.Coordinates
"H" | 0 | 0 | 0
%

spacing = 0.3
radius = 5.0

SpinComponents = polarized

Carbon.ExtraStates = 2
%Carbon.Occupations
 2/3 | 2/3 | 2/3
 0 | 0 | 0
%
